{"pageNumber":2,"pageSize":3,"totalPages":2,"totalRecords":5,"paginated":true,"activeMembers":1,"filter":null,"members":[{"externalId":"7466eb33-73bb-40cb-83da-8c61ae21654f","name":"_t4_","email":"teste3@teste.com.br","isActive":true,"createdAt":"2022-12-02T11:07:37.9866667","firstName":"t4","lastName":"t4_last"},{"externalId":"cc2408b7-96d6-4b08-877e-9616df00b8cd","name":"teste teste 2","email":"teste@teste.com.br","isActive":true,"createdAt":"2022-12-02T11:07:37.5966667","firstName":"teste","lastName":"teste 2"}]}
{"pageNumber":2,"pageSize":3,"totalPages":2,"totalRecords":4,"paginated":true,"activeMembers":2,"filter":"jeriel moreno","members":[{"externalId":"56407cbd-c3b3-423b-97ae-389567d23b78","name":"Jeriel.teste4","email":"teste1@teste.com.br","isActive":true,"createdAt":"2022-12-02T11:07:38.5266667","firstName":"Jeriel","lastName":"Moreno gonçalves"}]}
{"pageNumber":2,"pageSize":3,"totalPages":1,"totalRecords":3,"paginated":false,"activeMembers":3,"filter":"jeriel moreno","members":[{"externalId":"8a67e921-ca81-4364-bde2-b0730201c2eb","name":"Jeriel.teste2","email":"teste1@teste.com.br","isActive":false,"createdAt":"2022-12-02T11:07:38.5566667","firstName":"Jeriel","lastName":"Moreno da silva"},{"externalId":"15192310-e1b4-4dfa-9da2-048bfb42ec95","name":"Jeriel.teste3","email":"teste1@teste.com.br","isActive":false,"createdAt":"2022-12-02T11:07:38.5566667","firstName":"Jeriel","lastName":"Moreno da lima e silva"},{"externalId":"a2f36508-d91e-4056-af93-f36b4a1c7ea0","name":"Jeriel.teste4","email":"teste1@teste.com.br","isActive":false,"createdAt":"2022-12-02T11:07:38.5566667","firstName":"Jeriel","lastName":"Moreno gonçalves"}]}
{"id":1293,"externalId":"cd81dd3e-597f-49be-9475-8873610c4ca5","userName":"_t1_","firstName":"t1","lastName":"t1_last","userEmail":"teste1@teste.com.br","isActive":true,"createdAt":"2022-12-02T11:07:38.5866667","updatedAt":null,"deletedAt":null,"birthDate":"0001-01-01T00:00:00","shirtInformation":null,"documents":[{"id":"00000000-0000-0000-0000-000000000000","number":"","type":{"id":"4ae5ff1b-5f77-4a6f-8d68-bfea36b57cd7","description":"Cadastro de Pessoas Físicas"}},{"id":"00000000-0000-0000-0000-000000000000","number":"","type":{"id":"19a115fd-f18d-49c9-8e24-168e5e747350","description":"Registro General"}}],"emails":[{"id":"00000000-0000-0000-0000-000000000000","email":"","type":{"id":"2ef1c125-fe59-4ca6-8bed-263884424a84","description":"Pessoal"}}],"phones":[{"id":"00000000-0000-0000-0000-000000000000","countryCallingCode":null,"phoneNumber":"","fullPhoneNumber":"","isPrimary":true,"type":{"id":"9fad90ce-7d5a-417b-9982-04b92d2be4af","description":"Celular"}}],"addresses":[{"id":"00000000-0000-0000-0000-000000000000","type":{"id":"f1f336e1-b90e-42dc-bb50-5f3bae104e1f","description":"Casa"},"country":null,"state":null,"city":null,"street":null,"streetNumber":null,"complement":null,"additionalInformation":null,"zipCode":null}],"relationships":[],"pets":[]}

[{"id":"f93ab07f-7759-4201-b927-2a2502abaa90","description":"Envio","isoLanguageCode":"pt","isActive":true},{"id":"f1f336e1-b90e-42dc-bb50-5f3bae104e1f","description":"Casa","isoLanguageCode":"pt","isActive":true},{"id":"881918a2-f933-4f90-996e-6ff3be368023","description":"O Negócio","isoLanguageCode":"pt","isActive":true},{"id":"264ebc23-33d9-4ba3-ac95-dca542983d40","description":"Cobrança","isoLanguageCode":"pt","isActive":true}]
[{"id":"19a115fd-f18d-49c9-8e24-168e5e747350","country":"BR","code":"RG","description":"Registro General","isoLanguageCode":"pt","isActive":true},{"id":"adf4df7b-0963-453d-908c-bd08d2be112e","country":"AR","code":"DNI","description":"Documento nacional de identidade","isoLanguageCode":"pt","isActive":true},{"id":"4ae5ff1b-5f77-4a6f-8d68-bfea36b57cd7","country":"BR","code":"CPF","description":"Cadastro de Pessoas Físicas","isoLanguageCode":"pt","isActive":true}]
[{"id":"2ef1c125-fe59-4ca6-8bed-263884424a84","description":"Pessoal","isoLanguageCode":"pt","isActive":true},{"id":"bee03aad-429a-4f8f-ac77-7913341ef4c1","description":"Vortigo","isoLanguageCode":"pt","isActive":true},{"id":"7c81b868-b95c-48d6-8529-e480e1af1093","description":"Cliente","isoLanguageCode":"pt","isActive":true}]
[{"id":"9fad90ce-7d5a-417b-9982-04b92d2be4af","description":"Celular","isoLanguageCode":"pt","isActive":true},{"id":"ff36329d-8f8a-4b35-92aa-baa908e33dc8","description":"Telefone Fixo","isoLanguageCode":"pt","isActive":true}]
[{"id":"39ed0828-356d-4fd2-9e2f-0ad853c63164","description":"Amigo","isoLanguageCode":"pt","isActive":true},{"id":"60d88248-dc62-4a46-aa90-1294f03e3359","description":"Filho","isoLanguageCode":"pt","isActive":true},{"id":"3e7b88ca-3cc4-4c4c-ae51-5bdbc7cb6a6e","description":"Mãe","isoLanguageCode":"pt","isActive":true},{"id":"e6864662-8c0c-4a0c-a849-6023abbf899c","description":"Filha","isoLanguageCode":"pt","isActive":true},{"id":"7a0cdc5d-43dd-49f6-9ccc-8680a33a034e","description":"Esposa","isoLanguageCode":"pt","isActive":true},{"id":"31ca84d6-5293-40e0-8662-8e282fd58dda","description":"Irmão","isoLanguageCode":"pt","isActive":true},{"id":"5aa1b9ca-8cc9-4bb9-b1d0-a881e8a73972","description":"Pai","isoLanguageCode":"pt","isActive":true},{"id":"bd872388-1949-4778-baa4-eda1e877b9d1","description":"Esposo","isoLanguageCode":"pt","isActive":true},{"id":"02200e2d-b4b9-41ba-9737-fa85512c932f","description":"Irmã","isoLanguageCode":"pt","isActive":true}]
[{"id":"3618b6b3-5a3f-47df-a401-0352699385c2","description":"GG (Masculino)","isoLanguageCode":"pt","isActive":true},{"id":"f1891e3a-ae6e-4dbf-b679-13719b0b3412","description":"P (Masculino)","isoLanguageCode":"pt","isActive":true},{"id":"f6c2eca3-a4ce-4780-b754-2fe1d1d30a24","description":"GG (Feminino)","isoLanguageCode":"pt","isActive":true},{"id":"0642d852-d9bf-4d29-aa79-3dca34777f2a","description":"M (Masculino)","isoLanguageCode":"pt","isActive":true},{"id":"72273930-e19f-44c3-a6a3-78d4301fc631","description":"P (Feminino)","isoLanguageCode":"pt","isActive":true},{"id":"72273930-e19f-44c3-a6a3-78d4301fc632","description":"M (Feminino)","isoLanguageCode":"pt","isActive":true},{"id":"d1ad6444-8151-470e-8ac4-e7065807e053","description":"G (Feminino)","isoLanguageCode":"pt","isActive":true},{"id":"12409633-d848-4cf2-861b-f6f360f04ff6","description":"G (Masculino)","isoLanguageCode":"pt","isActive":true}]
